<?xml version="1.0" encoding="utf-8"?>
<!-- Generator: Adobe Illustrator 16.0.3, SVG Export Plug-In . SVG Version: 6.00 Build 0)  -->
<!DOCTYPE svg PUBLIC "-//W3C//DTD SVG 1.1//EN" "http://www.w3.org/Graphics/SVG/1.1/DTD/svg11.dtd">
<svg version="1.1" id="Capa_1" xmlns="http://www.w3.org/2000/svg" xmlns:xlink="http://www.w3.org/1999/xlink" x="0px" y="0px"
	 width="200px" height="200px" viewBox="0 0 200 200" enable-background="new 0 0 200 200" xml:space="preserve">
<g>
	<g>
		<path fill="#830052" d="M133.333,112.731V33.333C133.333,14.924,118.409,0,100,0S66.667,14.924,66.667,33.333v79.398
			C56.438,121.887,50,135.191,50,150c0,27.614,22.386,50,50,50s50-22.386,50-50C150,135.191,143.563,121.887,133.333,112.731z
			 M100,183.333c-18.409,0-33.333-14.924-33.333-33.333c0-9.624,4.078-18.552,11.115-24.85l5.551-4.969V33.333
			c0-9.205,7.462-16.667,16.667-16.667s16.667,7.461,16.667,16.667v86.849l5.552,4.969c7.037,6.298,11.115,15.226,11.115,24.85
			C133.333,168.409,118.409,183.333,100,183.333z"/>
	</g>
</g>
<g>
	<g>
		<rect x="91.667" y="66.667" fill="#830052" width="16.667" height="100"/>
	</g>
</g>
<g>
	<g>
		<circle fill="#830052" cx="100" cy="150" r="25"/>
	</g>
</g>
</svg>
