<?xml version="1.0" encoding="utf-8"?>
<!-- Generator: Adobe Illustrator 16.0.3, SVG Export Plug-In . SVG Version: 6.00 Build 0)  -->
<!DOCTYPE svg PUBLIC "-//W3C//DTD SVG 1.1//EN" "http://www.w3.org/Graphics/SVG/1.1/DTD/svg11.dtd">
<svg version="1.1" id="Capa_1" xmlns="http://www.w3.org/2000/svg" xmlns:xlink="http://www.w3.org/1999/xlink" x="0px" y="0px"
	 width="512px" height="512px" viewBox="0 0 512 512" enable-background="new 0 0 512 512" xml:space="preserve">
<g>
	<path fill="#830052" d="M411,262.861V215c0-69.822-46.411-129.001-110-148.33V45c0-24.813-20.188-45-45-45
		c-24.813,0-45,20.187-45,45v21.67C147.41,85.999,101,145.177,101,215v47.861c0,61.332-23.378,119.488-65.827,163.757
		c-4.16,4.338-5.329,10.739-2.971,16.267C34.56,448.413,39.99,452,46,452h136.509c6.968,34.192,37.271,60,73.491,60
		s66.521-25.808,73.49-60H466c6.01,0,11.438-3.587,13.797-9.115c2.357-5.527,1.188-11.929-2.971-16.267
		C434.378,382.35,411,324.193,411,262.861z M241,45c0-8.271,6.729-15,15-15c8.271,0,15,6.729,15,15v15.728
		C266.063,60.252,261.06,60,256,60c-5.061,0-10.063,0.252-15,0.728V45z M256,482c-19.556,0-36.229-12.541-42.42-30h84.84
		C292.228,469.459,275.555,482,256,482L256,482z M78.33,422C112.491,376.208,131,320.792,131,262.861V215
		c0-68.925,56.075-125,125-125s125,56.075,125,125v47.861c0,57.931,18.509,113.347,52.671,159.139H78.33z"/>
	<path fill="#830052" d="M451,215c0,8.284,6.716,15,15,15c8.283,0,15-6.716,15-15c0-60.1-23.404-116.603-65.901-159.1
		c-5.857-5.857-15.355-5.858-21.213,0c-5.858,5.858-5.858,15.355,0,21.213C430.717,113.944,451,162.913,451,215z"/>
	<path fill="#830052" d="M46,230c8.284,0,15-6.716,15-15c0-52.086,20.284-101.055,57.113-137.886c5.858-5.858,5.858-15.355,0-21.213
		c-5.856-5.858-15.354-5.858-21.213,0C54.404,98.398,31,154.9,31,215C31,223.284,37.716,230,46,230z"/>
</g>
</svg>
