<?xml version="1.0"?>
<svg xmlns="http://www.w3.org/2000/svg" xmlns:xlink="http://www.w3.org/1999/xlink" version="1.1" id="Capa_1" x="0px" y="0px" viewBox="0 0 384 384" style="enable-background:new 0 0 384 384;" xml:space="preserve" width="512px" height="512px" class=""><g><g>
	<g>
		<circle cx="192" cy="42.667" r="42.667" data-original="#000000" class="active-path" data-old_color="#000000" fill="#830052"/>
	</g>
</g><g>
	<g>
		<circle cx="192" cy="192" r="42.667" data-original="#000000" class="active-path" data-old_color="#000000" fill="#830052"/>
	</g>
</g><g>
	<g>
		<circle cx="192" cy="341.333" r="42.667" data-original="#000000" class="active-path" data-old_color="#000000" fill="#830052"/>
	</g>
</g></g> </svg>
